{
    "data":[
		{
		   "supplier":"Husada",
		   "prnumber":"1231241234",
		   "line":"1",
           "date": "10-2-2020",
           "approval": "14-2-2021",
           "item": "D-21312-0",
           "itemd": "ACID",
           "qty": 1,
           "uom": "Killogram",
           "location": "Disini",
           "noteb": "jangan dimakan",
           "notes": "jangan dikunyah",
           "manufaktur": "-",
           "currency": "-",
           "cqty": "-",
           "arrival": "-",
           "lines": "New",
           "cprice": "-",
           "dest": "-",
           "last": "3000"
		},
		{
            "supplier":"Jamet",
            "prnumber":"24314315213",
            "line":"1",
            "date": "8-2-2020",
            "approval": "14-2-2021",
            "item": "D-21312-0",
            "itemd": "ACID",
            "qty": 1,
            "uom": "Killogram",
            "location": "Disini",
            "noteb": "jangan dimakan",
            "notes": "jangan dikunyah",
            "manufaktur": "-",
            "currency": "-",
            "cqty": "-",
            "arrival": "-",
            "lines": "New",
            "cprice": "-",
            "dest": "-",
            "last": "3000"
		},
		{
            "supplier":"Koko",
            "prnumber":"243143113",
            "line":"1",
            "date": "18-12-2020",
            "approval": "14-2-2021",
            "item": "D-21312-0",
            "itemd": "ACID",
            "qty": 1,
            "uom": "Killogram",
            "location": "Disini",
            "noteb": "jangan dimakan",
            "notes": "jangan dikunyah",
            "manufaktur": "-",
            "currency": "-",
            "cqty": "-",
            "arrival": "-",
            "lines": "New",
            "cprice": "-",
            "dest": "-",
            "last": "3000"
		},
        {
            "supplier":"Oleh",
            "prnumber":"24914315213",
            "line":"1",
            "date": "18-12-2020",
            "approval": "14-2-2021",
            "item": "D-21312-0",
            "itemd": "ACID",
            "qty": 1,
            "uom": "Killogram",
            "location": "Disini",
            "noteb": "jangan dimakan",
            "notes": "jangan dikunyah",
            "manufaktur": "-",
            "currency": "-",
            "cqty": "-",
            "arrival": "-",
            "lines": "New",
            "cprice": "-",
            "dest": "-",
            "last": "3000"
        },
        {
            "supplier":"Who",
            "prnumber":"243143113",
            "line":"1",
            "date": "18-12-2020",
            "approval": "14-2-2021",
            "item": "D-21312-0",
            "itemd": "ACID",
            "qty": 1,
            "uom": "Killogram",
            "location": "Disini",
            "noteb": "jangan dimakan",
            "notes": "jangan dikunyah",
            "manufaktur": "Koki",
            "currency": "400000",
            "cqty": "21394",
            "arrival": "Datang",
            "lines": "New",
            "cprice": "1000",
            "dest": "WOOOO YEAAH BABY",
            "last": "3000"
        },
        {
            "supplier":"Be Like",
            "prnumber":"241314315213",
            "line":"1",
            "date": "18-12-2020",
            "approval": "14-2-2021",
            "item": "D-21312-0",
            "itemd": "ACID",
            "qty": 1,
            "uom": "Killogram",
            "location": "Disini",
            "noteb": "jangan dimakan",
            "notes": "jangan dikunyah",
            "manufaktur": "-",
            "currency": "-",
            "cqty": "-",
            "arrival": "-",
            "lines": "New",
            "cprice": "-",
            "dest": "-",
            "last": "3000"
        }
    ]
}